<svg width="58" height="58" viewBox="0 0 58 58" fill="none" xmlns="http://www.w3.org/2000/svg">
<path d="M29.4166 35.8784H22.2916V28.7534L43.6666 7.37842L50.7916 14.5034L29.4166 35.8784Z" stroke="#69D9C4" stroke-width="4" stroke-linecap="round" stroke-linejoin="round"/>
<path d="M38.3228 12.7222L45.4478 19.8472" stroke="#69D9C4" stroke-width="4" stroke-linecap="round" stroke-linejoin="round"/>
<path d="M49.0103 26.9722V46.5659C49.0103 47.0383 48.8227 47.4914 48.4886 47.8255C48.1546 48.1595 47.7015 48.3472 47.2291 48.3472H11.6041C11.1317 48.3472 10.6786 48.1595 10.3446 47.8255C10.0105 47.4914 9.82285 47.0383 9.82285 46.5659V10.9409C9.82285 10.4685 10.0105 10.0154 10.3446 9.68138C10.6786 9.34734 11.1317 9.15967 11.6041 9.15967H31.1978" stroke="#69D9C4" stroke-width="4" stroke-linecap="round" stroke-linejoin="round"/>
</svg>
