<svg width="135" height="41" viewBox="0 0 135 41" fill="none" xmlns="http://www.w3.org/2000/svg">
<g clip-path="url(#clip0)">
<path d="M8.4138 38.9935L8.41799 38.9935C8.75685 39.0003 9.08949 39.0041 9.42999 39.0041L124.35 39.0061H124.35L125.575 39.0041H125.576C125.908 39.0041 126.251 39.0003 126.579 38.9935L126.584 38.9934C127.27 38.9861 127.953 38.9333 128.63 38.8355C129.241 38.7436 129.831 38.5711 130.382 38.3244C130.923 38.0812 131.413 37.7637 131.835 37.3854L131.839 37.3818C132.262 37.0109 132.613 36.5856 132.883 36.1224C133.154 35.645 133.34 35.1356 133.435 34.6121L133.435 34.6088C133.545 34.0233 133.607 33.4317 133.62 32.8386C133.62 32.838 133.62 32.8374 133.62 32.8368L134.12 32.8474C134.124 32.5408 134.124 32.2428 134.124 31.9175L8.4138 38.9935ZM8.4138 38.9935C7.72856 38.9856 7.04499 38.9328 6.36873 38.8356C5.76175 38.7429 5.17496 38.5709 4.62769 38.3259C4.08846 38.0843 3.59913 37.7686 3.17759 37.3924L3.17761 37.3924L3.17271 37.3881C2.74551 37.0167 2.39243 36.5882 2.12561 36.1208L2.12512 36.12C1.85334 35.646 1.66635 35.1399 1.56924 34.6194L1.56916 34.619C1.45814 34.0269 1.3981 33.4284 1.38951 32.8286L1.38961 32.8286L1.38927 32.8188C1.38588 32.7187 1.3818 32.4954 1.37854 32.292L1.37454 32.0283L1.37339 31.9461L1.37308 31.9236L1.37302 31.9191M8.4138 38.9935L1.37302 31.9191M1.37302 31.9191V8.82068L1.37308 8.81654L1.3734 8.79434L1.37462 8.71346L1.37877 8.45425C1.38212 8.25456 1.3862 8.03535 1.38935 7.93858L1.38944 7.93858L1.38957 7.92919C1.39779 7.33042 1.45747 6.73295 1.56814 6.14188L1.56822 6.14148C1.66557 5.61926 1.85281 5.11142 2.1249 4.63561L2.1254 4.63473C2.39152 4.16714 2.74296 3.73795 3.16791 3.36494L3.16792 3.36494L3.16988 3.3632C3.59539 2.98572 4.08719 2.66782 4.62816 2.4224C5.17373 2.17855 5.75894 2.00796 6.36419 1.91709C7.0427 1.81893 7.72866 1.76585 8.4163 1.75831L8.4168 1.7583L9.43353 1.74612H125.567H125.57L126.596 1.75879L126.597 1.7588C127.278 1.76596 127.957 1.81856 128.629 1.91611C129.241 2.00821 129.833 2.18009 130.385 2.4254C131.469 2.92025 132.34 3.69725 132.886 4.63809C133.153 5.11012 133.337 5.61324 133.433 6.13038L133.433 6.13145C133.545 6.72807 133.608 7.33094 133.621 7.93532C133.621 7.936 133.621 7.93669 133.621 7.93737L134.121 7.92672M1.37302 31.9191L134.124 8.81705C134.124 8.51424 134.124 8.20998 134.121 7.92672M134.121 7.92672C134.107 7.29413 134.042 6.66325 133.924 6.03912L134.121 7.92672Z" stroke="white"/>
<path d="M32.7973 20.6768C32.8081 19.8421 33.0298 19.0238 33.4418 18.2978C33.8538 17.5718 34.4428 16.9619 35.1539 16.5247C34.7021 15.8796 34.1062 15.3486 33.4134 14.9741C32.7205 14.5995 31.9499 14.3917 31.1627 14.3671C29.4835 14.1908 27.8555 15.3719 26.9998 15.3719C26.1275 15.3719 24.81 14.3846 23.3913 14.4137C22.4736 14.4434 21.5793 14.7102 20.7954 15.1883C20.0115 15.6664 19.3649 16.3393 18.9184 17.1416C16.9844 20.49 18.427 25.4111 20.2796 28.1177C21.2065 29.443 22.2898 30.9235 23.7072 30.871C25.0943 30.8135 25.6123 29.9865 27.2866 29.9865C28.9454 29.9865 29.4314 30.871 30.8776 30.8376C32.366 30.8135 33.3038 29.5064 34.1981 28.1685C34.8641 27.2241 35.3766 26.1804 35.7166 25.076C34.8518 24.7102 34.1139 24.0981 33.5948 23.3158C33.0757 22.5335 32.7983 21.6157 32.7973 20.6768Z" fill="white"/>
<path d="M30.0657 12.587C30.8772 11.6128 31.277 10.3606 31.1802 9.09637C29.9404 9.22659 28.7951 9.81915 27.9726 10.756C27.5705 11.2136 27.2625 11.7461 27.0662 12.3229C26.87 12.8996 26.7893 13.5094 26.8289 14.1174C27.449 14.1238 28.0626 13.9893 28.6232 13.7243C29.1839 13.4592 29.6771 13.0703 30.0657 12.587Z" fill="white"/>
<path d="M50.3307 27.5157H45.5973L44.4606 30.8722H42.4557L46.9391 18.4542H49.0221L53.5055 30.8722H51.4664L50.3307 27.5157ZM46.0875 25.9669H49.8395L47.9899 20.5196H47.9381L46.0875 25.9669Z" fill="white"/>
<path d="M63.1881 26.3458C63.1881 29.1593 61.6823 30.9669 59.4098 30.9669C58.8342 30.997 58.2617 30.8644 57.7579 30.5843C57.2541 30.3041 56.8394 29.8878 56.5612 29.3829H56.5182V33.8673H54.6598V21.8185H56.4586V23.3243H56.4928C56.7838 22.8219 57.2055 22.4077 57.7131 22.1258C58.2208 21.844 58.7953 21.705 59.3756 21.7237C61.6735 21.7238 63.1881 23.5402 63.1881 26.3458ZM61.278 26.3458C61.278 24.5128 60.3307 23.3077 58.8854 23.3077C57.4655 23.3077 56.5104 24.5382 56.5104 26.3458C56.5104 28.17 57.4655 29.3917 58.8854 29.3917C60.3307 29.3917 61.278 28.1954 61.278 26.3458Z" fill="white"/>
<path d="M73.1529 26.3458C73.1529 29.1593 71.6471 30.9669 69.3746 30.9669C68.7989 30.997 68.2264 30.8644 67.7227 30.5843C67.2189 30.3041 66.8041 29.8878 66.526 29.3829H66.483V33.8673H64.6246V21.8185H66.4234V23.3243H66.4576C66.7485 22.8219 67.1703 22.4077 67.6779 22.1258C68.1855 21.844 68.7601 21.705 69.3404 21.7237C71.6383 21.7237 73.1529 23.5401 73.1529 26.3458ZM71.2428 26.3458C71.2428 24.5128 70.2955 23.3077 68.8502 23.3077C67.4303 23.3077 66.4752 24.5382 66.4752 26.3458C66.4752 28.17 67.4303 29.3917 68.8502 29.3917C70.2955 29.3917 71.2428 28.1954 71.2428 26.3458H71.2428Z" fill="white"/>
<path d="M79.7389 27.4122C79.8766 28.6437 81.0729 29.4522 82.7077 29.4522C84.2741 29.4522 85.401 28.6436 85.401 27.5333C85.401 26.5694 84.7213 25.9923 83.112 25.5968L81.5026 25.2091C79.2223 24.6583 78.1637 23.5919 78.1637 21.8614C78.1637 19.7188 80.0309 18.2471 82.6823 18.2471C85.3063 18.2471 87.1051 19.7188 87.1657 21.8614H85.2897C85.1774 20.6221 84.153 19.8741 82.6559 19.8741C81.1588 19.8741 80.1344 20.6309 80.1344 21.7325C80.1344 22.6104 80.7887 23.127 82.3893 23.5225L83.7574 23.8584C86.3053 24.461 87.3639 25.4844 87.3639 27.3008C87.3639 29.6241 85.5133 31.0791 82.5699 31.0791C79.816 31.0791 77.9567 29.6582 77.8365 27.4121L79.7389 27.4122Z" fill="white"/>
<path d="M91.3746 19.6759V21.8185H93.0963V23.2902H91.3746V28.2814C91.3746 29.0568 91.7194 29.4181 92.4762 29.4181C92.6806 29.4145 92.8846 29.4002 93.0875 29.3751V30.838C92.7472 30.9016 92.4014 30.9304 92.0553 30.9239C90.2223 30.9239 89.5074 30.2354 89.5074 28.4796V23.2902H88.191V21.8185H89.5074V19.6759H91.3746Z" fill="white"/>
<path d="M94.0934 26.3458C94.0934 23.4972 95.7712 21.7072 98.3874 21.7072C101.012 21.7072 102.682 23.4972 102.682 26.3458C102.682 29.2023 101.021 30.9845 98.3874 30.9845C95.7545 30.9845 94.0934 29.2023 94.0934 26.3458ZM100.789 26.3458C100.789 24.3917 99.8932 23.2384 98.3874 23.2384C96.8815 23.2384 95.987 24.4005 95.987 26.3458C95.987 28.3077 96.8815 29.4523 98.3874 29.4523C99.8932 29.4523 100.789 28.3077 100.789 26.3458H100.789Z" fill="white"/>
<path d="M104.214 21.8185H105.987V23.3595H106.03C106.15 22.8782 106.432 22.4529 106.828 22.155C107.225 21.8571 107.712 21.7048 108.208 21.7237C108.422 21.723 108.635 21.7463 108.844 21.7931V23.5314C108.574 23.4487 108.292 23.4108 108.009 23.4191C107.739 23.4081 107.47 23.4557 107.22 23.5586C106.971 23.6615 106.746 23.8172 106.562 24.0151C106.378 24.213 106.239 24.4484 106.155 24.705C106.07 24.9617 106.042 25.2336 106.073 25.5021V30.8722H104.214L104.214 21.8185Z" fill="white"/>
<path d="M117.413 28.213C117.163 29.8566 115.562 30.9845 113.514 30.9845C110.88 30.9845 109.246 29.2198 109.246 26.3888C109.246 23.549 110.889 21.7072 113.436 21.7072C115.941 21.7072 117.516 23.4279 117.516 26.173V26.8097H111.122V26.922C111.092 27.2552 111.134 27.5909 111.244 27.9067C111.354 28.2225 111.53 28.5113 111.761 28.7539C111.991 28.9964 112.27 29.1872 112.58 29.3135C112.89 29.4398 113.223 29.4987 113.557 29.4864C113.996 29.5276 114.437 29.4259 114.814 29.1964C115.191 28.967 115.483 28.6221 115.648 28.213L117.413 28.213ZM111.13 25.5109H115.657C115.674 25.2113 115.628 24.9115 115.523 24.6302C115.419 24.349 115.257 24.0925 115.049 23.8767C114.84 23.661 114.589 23.4906 114.312 23.3764C114.034 23.2622 113.736 23.2066 113.436 23.213C113.134 23.2112 112.834 23.2694 112.553 23.3841C112.273 23.4988 112.019 23.6679 111.805 23.8815C111.59 24.0952 111.42 24.3491 111.305 24.6288C111.189 24.9084 111.13 25.2082 111.13 25.5109V25.5109Z" fill="white"/>
<path d="M45.8546 9.10711C46.2442 9.07915 46.6352 9.13801 46.9993 9.27945C47.3634 9.42088 47.6916 9.64136 47.9602 9.92498C48.2288 10.2086 48.4311 10.5483 48.5525 10.9196C48.6739 11.2909 48.7114 11.6844 48.6622 12.072C48.6622 13.9782 47.632 15.074 45.8546 15.074H43.6993V9.10711H45.8546ZM44.6261 14.2301H45.7511C46.0295 14.2468 46.3081 14.2011 46.5666 14.0965C46.8252 13.9919 47.0571 13.8309 47.2456 13.6254C47.4341 13.4198 47.5744 13.1748 47.6563 12.9082C47.7381 12.6416 47.7595 12.36 47.7189 12.0841C47.7566 11.8093 47.733 11.5295 47.6499 11.2648C47.5668 11.0002 47.4262 10.7572 47.2381 10.5532C47.05 10.3493 46.8192 10.1895 46.5621 10.0853C46.305 9.98104 46.0281 9.93495 45.7511 9.95032H44.6261V14.2301Z" fill="white"/>
<path d="M49.7091 12.8204C49.6808 12.5245 49.7146 12.226 49.8085 11.9439C49.9023 11.6618 50.0541 11.4025 50.254 11.1825C50.4539 10.9625 50.6977 10.7868 50.9695 10.6665C51.2414 10.5462 51.5353 10.4841 51.8326 10.4841C52.1299 10.4841 52.4239 10.5462 52.6957 10.6665C52.9676 10.7868 53.2113 10.9625 53.4112 11.1825C53.6112 11.4025 53.7629 11.6618 53.8568 11.9439C53.9506 12.226 53.9845 12.5245 53.9562 12.8204C53.985 13.1167 53.9515 13.4157 53.858 13.6982C53.7644 13.9807 53.6127 14.2405 53.4127 14.4609C53.2127 14.6813 52.9688 14.8575 52.6967 14.978C52.4246 15.0986 52.1302 15.1608 51.8326 15.1608C51.535 15.1608 51.2407 15.0986 50.9685 14.978C50.6964 14.8575 50.4525 14.6813 50.2525 14.4609C50.0525 14.2405 49.9009 13.9807 49.8073 13.6982C49.7137 13.4157 49.6802 13.1167 49.7091 12.8204ZM53.0421 12.8204C53.0421 11.8444 52.6036 11.2736 51.8341 11.2736C51.0616 11.2736 50.6271 11.8444 50.6271 12.8205C50.6271 13.8043 51.0617 14.3707 51.8341 14.3707C52.6036 14.3707 53.0421 13.8004 53.0421 12.8204H53.0421Z" fill="white"/>
<path d="M59.6017 15.0739H58.6798L57.7491 11.7574H57.6788L56.7521 15.0739H55.839L54.5978 10.5709H55.4991L56.3058 14.0069H56.3722L57.298 10.5709H58.1505L59.0763 14.0069H59.1466L59.9493 10.5709H60.838L59.6017 15.0739Z" fill="white"/>
<path d="M61.882 10.5709H62.7374V11.2863H62.8038C62.9165 11.0293 63.1065 10.814 63.3474 10.6702C63.5882 10.5264 63.868 10.4613 64.1476 10.484C64.3667 10.4675 64.5867 10.5006 64.7913 10.5807C64.9959 10.6608 65.1798 10.7859 65.3295 10.9467C65.4792 11.1076 65.5908 11.3 65.656 11.5098C65.7212 11.7197 65.7383 11.9415 65.7062 12.1588V15.0738H64.8175V12.382C64.8175 11.6583 64.5031 11.2985 63.8458 11.2985C63.6971 11.2915 63.5486 11.3169 63.4105 11.3727C63.2725 11.4285 63.1481 11.5135 63.046 11.6219C62.9439 11.7303 62.8664 11.8595 62.8188 12.0006C62.7713 12.1418 62.7549 12.2915 62.7706 12.4396V15.0739H61.882L61.882 10.5709Z" fill="white"/>
<path d="M67.1222 8.81311H68.0109V15.0738H67.1222V8.81311Z" fill="white"/>
<path d="M69.2462 12.8204C69.2179 12.5245 69.2518 12.2259 69.3457 11.9438C69.4395 11.6618 69.5913 11.4024 69.7913 11.1824C69.9912 10.9624 70.235 10.7867 70.5068 10.6664C70.7787 10.5461 71.0727 10.484 71.37 10.484C71.6673 10.484 71.9613 10.5461 72.2332 10.6664C72.505 10.7867 72.7488 10.9624 72.9487 11.1824C73.1487 11.4024 73.3005 11.6618 73.3943 11.9438C73.4882 12.2259 73.5221 12.5245 73.4938 12.8204C73.5226 13.1167 73.4891 13.4157 73.3955 13.6982C73.3019 13.9807 73.1502 14.2405 72.9502 14.4609C72.7502 14.6813 72.5062 14.8575 72.2341 14.978C71.962 15.0985 71.6676 15.1608 71.37 15.1608C71.0724 15.1608 70.778 15.0985 70.5059 14.978C70.2338 14.8575 69.9899 14.6813 69.7898 14.4609C69.5898 14.2405 69.4381 13.9807 69.3445 13.6982C69.2509 13.4157 69.2174 13.1167 69.2462 12.8204ZM72.5792 12.8204C72.5792 11.8444 72.1407 11.2736 71.3712 11.2736C70.5988 11.2736 70.1642 11.8444 70.1642 12.8205C70.1642 13.8043 70.5988 14.3707 71.3712 14.3707C72.1408 14.3707 72.5792 13.8004 72.5792 12.8204H72.5792Z" fill="white"/>
<path d="M74.4293 13.8004C74.4293 12.9899 75.0328 12.5226 76.1041 12.4562L77.3239 12.3859V11.9972C77.3239 11.5216 77.0094 11.2531 76.402 11.2531C75.9059 11.2531 75.5621 11.4352 75.4635 11.7536H74.6031C74.694 10.9801 75.4215 10.484 76.443 10.484C77.5719 10.484 78.2086 11.046 78.2086 11.9972V15.0739H77.3531V14.4411H77.2828C77.1401 14.6681 76.9397 14.8531 76.7021 14.9773C76.4645 15.1015 76.1981 15.1605 75.9303 15.1481C75.7413 15.1677 75.5502 15.1476 75.3694 15.0889C75.1887 15.0302 75.0222 14.9342 74.8808 14.8073C74.7394 14.6803 74.6262 14.5251 74.5484 14.3517C74.4706 14.1783 74.4301 13.9905 74.4293 13.8004ZM77.3239 13.4157V13.0392L76.2242 13.1095C75.6041 13.151 75.3229 13.362 75.3229 13.7589C75.3229 14.1642 75.6744 14.4 76.1579 14.4C76.2995 14.4144 76.4426 14.4001 76.5786 14.358C76.7146 14.3159 76.8408 14.2469 76.9495 14.155C77.0583 14.0632 77.1475 13.9504 77.2118 13.8234C77.2761 13.6964 77.3142 13.5577 77.3239 13.4157Z" fill="white"/>
<path d="M79.3766 12.8204C79.3766 11.3976 80.108 10.4962 81.2457 10.4962C81.5271 10.4833 81.8064 10.5507 82.051 10.6906C82.2955 10.8305 82.4951 11.0371 82.6266 11.2862H82.693V8.81311H83.5817V15.0738H82.7301V14.3624H82.6598C82.5182 14.6099 82.3116 14.8139 82.0623 14.9524C81.8131 15.0909 81.5307 15.1586 81.2457 15.1481C80.1002 15.1481 79.3766 14.2467 79.3766 12.8204ZM80.2946 12.8204C80.2946 13.7755 80.7448 14.3502 81.4977 14.3502C82.2467 14.3502 82.7096 13.7672 82.7096 12.8244C82.7096 11.8859 82.2419 11.2946 81.4977 11.2946C80.7496 11.2946 80.2946 11.8732 80.2946 12.8204H80.2946Z" fill="white"/>
<path d="M87.2584 12.8204C87.2301 12.5245 87.2639 12.226 87.3578 11.9439C87.4516 11.6618 87.6034 11.4025 87.8033 11.1825C88.0033 10.9625 88.247 10.7868 88.5188 10.6665C88.7907 10.5462 89.0847 10.4841 89.3819 10.4841C89.6792 10.4841 89.9732 10.5462 90.245 10.6665C90.5169 10.7868 90.7606 10.9625 90.9605 11.1825C91.1605 11.4025 91.3122 11.6618 91.4061 11.9439C91.4999 12.226 91.5338 12.5245 91.5055 12.8204C91.5343 13.1167 91.5009 13.4157 91.4073 13.6982C91.3137 13.9807 91.162 14.2405 90.962 14.4609C90.762 14.6813 90.5181 14.8575 90.246 14.978C89.9739 15.0986 89.6796 15.1608 89.3819 15.1608C89.0843 15.1608 88.79 15.0986 88.5179 14.978C88.2457 14.8575 88.0018 14.6813 87.8018 14.4609C87.6018 14.2405 87.4502 13.9807 87.3566 13.6982C87.263 13.4157 87.2296 13.1167 87.2584 12.8204ZM90.5914 12.8204C90.5914 11.8444 90.1529 11.2736 89.3834 11.2736C88.6109 11.2736 88.1764 11.8444 88.1764 12.8205C88.1764 13.8043 88.611 14.3707 89.3834 14.3707C90.1529 14.3707 90.5914 13.8004 90.5914 12.8204Z" fill="white"/>
<path d="M92.6979 10.5709H93.5533V11.2863H93.6198C93.7324 11.0293 93.9224 10.814 94.1633 10.6702C94.4042 10.5264 94.6839 10.4613 94.9635 10.484C95.1826 10.4675 95.4026 10.5006 95.6072 10.5807C95.8118 10.6608 95.9958 10.7859 96.1454 10.9467C96.2951 11.1076 96.4067 11.3 96.4719 11.5098C96.5371 11.7197 96.5543 11.9415 96.5221 12.1588V15.0738H95.6334V12.382C95.6334 11.6583 95.319 11.2985 94.6618 11.2985C94.513 11.2915 94.3645 11.3169 94.2264 11.3727C94.0884 11.4285 93.964 11.5135 93.8619 11.6219C93.7598 11.7303 93.6823 11.8595 93.6348 12.0006C93.5872 12.1418 93.5708 12.2915 93.5865 12.4396V15.0739H92.6979V10.5709Z" fill="white"/>
<path d="M101.544 9.44983V10.5914H102.519V11.34H101.544V13.6554C101.544 14.1271 101.738 14.3336 102.18 14.3336C102.294 14.3333 102.407 14.3264 102.519 14.3131V15.0533C102.36 15.0819 102.198 15.0971 102.036 15.0987C101.047 15.0987 100.654 14.7511 100.654 13.8829V11.3399H99.9391V10.5914H100.654V9.44983H101.544Z" fill="white"/>
<path d="M103.733 8.81311H104.614V11.2946H104.684C104.802 11.0352 104.998 10.8186 105.243 10.6743C105.489 10.53 105.773 10.4649 106.057 10.4879C106.275 10.4761 106.493 10.5124 106.695 10.5945C106.898 10.6765 107.079 10.8022 107.227 10.9625C107.376 11.1229 107.486 11.3139 107.552 11.5221C107.618 11.7302 107.637 11.9503 107.608 12.1666V15.0739H106.718V12.3859C106.718 11.6666 106.383 11.3024 105.756 11.3024C105.603 11.2898 105.449 11.3108 105.305 11.3639C105.162 11.4169 105.031 11.5008 104.923 11.6095C104.815 11.7182 104.732 11.8493 104.68 11.9934C104.628 12.1375 104.608 12.2913 104.622 12.444V15.0738H103.733L103.733 8.81311Z" fill="white"/>
<path d="M112.79 13.858C112.669 14.2696 112.407 14.6256 112.051 14.8637C111.694 15.1019 111.265 15.207 110.838 15.1608C110.542 15.1686 110.247 15.1118 109.974 14.9943C109.702 14.8767 109.458 14.7013 109.26 14.4802C109.063 14.259 108.915 13.9975 108.828 13.7137C108.742 13.4298 108.718 13.1305 108.758 12.8366C108.719 12.5417 108.743 12.2417 108.83 11.9571C108.916 11.6724 109.063 11.4096 109.26 11.1866C109.457 10.9635 109.699 10.7853 109.971 10.6641C110.242 10.5429 110.537 10.4815 110.835 10.484C112.087 10.484 112.843 11.34 112.843 12.754V13.0641H109.664V13.1139C109.65 13.2792 109.671 13.4455 109.725 13.6022C109.779 13.759 109.865 13.9027 109.978 14.0242C110.091 14.1456 110.228 14.2421 110.38 14.3075C110.533 14.3729 110.697 14.4058 110.863 14.4039C111.075 14.4294 111.291 14.3912 111.482 14.2939C111.672 14.1967 111.83 14.045 111.934 13.858L112.79 13.858ZM109.664 12.4069H111.938C111.949 12.2557 111.929 12.1039 111.878 11.9612C111.827 11.8185 111.747 11.688 111.642 11.5782C111.538 11.4683 111.412 11.3815 111.272 11.3233C111.132 11.2652 110.981 11.2369 110.83 11.2404C110.676 11.2384 110.523 11.2673 110.381 11.3252C110.239 11.3832 110.109 11.469 110.001 11.5778C109.892 11.6865 109.806 11.8158 109.748 11.9582C109.69 12.1006 109.662 12.2532 109.664 12.4069H109.664Z" fill="white"/>
</g>
<defs>
<clipPath id="clip0">
<rect width="135" height="40" fill="white" transform="translate(0 0.376099)"/>
</clipPath>
</defs>
</svg>
