<svg width="48" height="48" viewBox="0 0 48 48" fill="none" xmlns="http://www.w3.org/2000/svg">
<path opacity="0.1" fill-rule="evenodd" clip-rule="evenodd" d="M0.623596 23.583C0.623596 10.6043 11.1449 0.0830078 24.1236 0.0830078C37.1023 0.0830078 47.6236 10.6043 47.6236 23.583C47.6236 36.5617 37.1023 47.083 24.1236 47.083C11.1449 47.083 0.623596 36.5617 0.623596 23.583Z" fill="white"/>
<path fill-rule="evenodd" clip-rule="evenodd" d="M28.2936 15.5824C29.0188 15.5824 29.9253 15.5824 30.6505 15.5824C30.8318 15.5824 30.8318 15.5824 31.0131 15.5824V11.2311C30.6505 11.2311 30.1066 11.0498 29.744 11.0498C28.8375 11.0498 28.1123 11.0498 27.2058 11.0498C25.9366 11.0498 24.6675 11.4124 23.5797 12.1376C22.3106 13.0441 21.7667 14.3133 21.4041 15.7637C21.2228 16.3076 21.2228 17.0328 21.2228 17.5767C21.2228 18.4832 21.2228 19.3897 21.2228 20.4775V20.8402H17.2341V25.554H21.2228V37.52H26.1179V25.554H30.1066C30.2879 23.9223 30.4692 22.4719 30.6505 20.8402C30.2879 20.8402 30.1066 20.8402 29.744 20.8402C28.6562 20.8402 25.9366 20.8402 25.9366 20.8402C25.9366 20.8402 25.9366 18.4832 25.9366 17.3954C26.2992 15.945 27.0245 15.5824 28.2936 15.5824Z" fill="white"/>
</svg>
