<svg width="48" height="48" viewBox="0 0 48 48" fill="none" xmlns="http://www.w3.org/2000/svg">
<path opacity="0.1" fill-rule="evenodd" clip-rule="evenodd" d="M0.623596 24.0415C0.623596 11.0628 11.1449 0.541504 24.1236 0.541504C37.1023 0.541504 47.6236 11.0628 47.6236 24.0415C47.6236 37.0202 37.1023 47.5415 24.1236 47.5415C11.1449 47.5415 0.623596 37.0202 0.623596 24.0415Z" fill="white"/>
<g clip-path="url(#clip0)">
<path d="M35.2252 15.3599H13.022C11.1481 15.3599 9.6236 16.8844 9.6236 18.7583V33.2583C9.6236 35.1322 11.1481 36.6567 13.022 36.6567H35.2252C37.0991 36.6567 38.6236 35.1322 38.6236 33.2583V18.7583C38.6236 16.8844 37.0991 15.3599 35.2252 15.3599ZM36.358 33.2583C36.358 33.8829 35.8498 34.3911 35.2252 34.3911H13.022C12.3974 34.3911 11.8892 33.8829 11.8892 33.2583V18.7583C11.8892 18.1337 12.3974 17.6255 13.022 17.6255H35.2252C35.8498 17.6255 36.358 18.1337 36.358 18.7583V33.2583Z" fill="white"/>
<path d="M36.1656 16.7725L24.1236 25.7294L12.0816 16.7725L10.7293 18.5903L24.1236 28.5531L37.5179 18.5903L36.1656 16.7725Z" fill="white"/>
</g>
<defs>
<clipPath id="clip0">
<rect width="29" height="29" fill="white" transform="translate(9.6236 11.5083)"/>
</clipPath>
</defs>
</svg>
